Portfolio - Interactive Plots!
…
Interactive Plots!

Project 3: Using Tables

plot1!!!!

Show the code

ds1 <- read_csv("https://raw.githubusercontent.com/bobbyjy/MyData/main/job_retention-hopa.txt")

ds1

# A tibble: 3,770 × 7
   gender field                  level  sentiment intention  left month
   <chr>  <chr>                  <chr>      <dbl>     <dbl> <dbl> <dbl>
 1 M      Public/Government      High           3         8     1     1
 2 F      Finance                Low            8         4     0    12
 3 M      Education and Training Medium         7         7     1     5
 4 M      Finance                Low            8         4     0    12
 5 M      Finance                High           7         6     1     1
 6 F      Health                 Medium         6        10     1     2
 7 M      Education and Training Medium         8         2     0    12
 8 M      Finance                Low            7         9     0    12
 9 M      Public/Government      High           7         6     1     5
10 M      Law                    Low            7         4     0    12
# … with 3,760 more rows
…
